%YAML 1.1
%TAG !u! tag:unity3d.com,2011:
--- !u!1001 &7959823391983580118
PrefabInstance:
  m_ObjectHideFlags: 0
  serializedVersion: 2
  m_Modification:
    m_TransformParent: {fileID: 0}
    m_Modifications:
    - target: {fileID: 8515300420366330128, guid: e17309cedb677214ca4aee2e90320c90, type: 3}
      propertyPath: _kittenType
      value: 0
      objectReference: {fileID: 0}
    - target: {fileID: 8515300420366330129, guid: e17309cedb677214ca4aee2e90320c90, type: 3}
      propertyPath: m_Sprite
      value: 
      objectReference: {fileID: 7650358166201780866, guid: 7be2b84772685574184a749bfa026b76, type: 3}
    - target: {fileID: 8515300420366330131, guid: e17309cedb677214ca4aee2e90320c90, type: 3}
      propertyPath: m_Name
      value: Mother Blue
      objectReference: {fileID: 0}
    - target: {fileID: 8515300420366330143, guid: e17309cedb677214ca4aee2e90320c90, type: 3}
      propertyPath: m_LocalPosition.x
      value: 0
      objectReference: {fileID: 0}
    - target: {fileID: 8515300420366330143, guid: e17309cedb677214ca4aee2e90320c90, type: 3}
      propertyPath: m_LocalPosition.y
      value: 0
      objectReference: {fileID: 0}
    - target: {fileID: 8515300420366330143, guid: e17309cedb677214ca4aee2e90320c90, type: 3}
      propertyPath: m_LocalPosition.z
      value: 0
      objectReference: {fileID: 0}
    - target: {fileID: 8515300420366330143, guid: e17309cedb677214ca4aee2e90320c90, type: 3}
      propertyPath: m_LocalRotation.x
      value: 0
      objectReference: {fileID: 0}
    - target: {fileID: 8515300420366330143, guid: e17309cedb677214ca4aee2e90320c90, type: 3}
      propertyPath: m_LocalRotation.y
      value: 0
      objectReference: {fileID: 0}
    - target: {fileID: 8515300420366330143, guid: e17309cedb677214ca4aee2e90320c90, type: 3}
      propertyPath: m_LocalRotation.z
      value: 0
      objectReference: {fileID: 0}
    - target: {fileID: 8515300420366330143, guid: e17309cedb677214ca4aee2e90320c90, type: 3}
      propertyPath: m_LocalRotation.w
      value: 1
      objectReference: {fileID: 0}
    - target: {fileID: 8515300420366330143, guid: e17309cedb677214ca4aee2e90320c90, type: 3}
      propertyPath: m_RootOrder
      value: 0
      objectReference: {fileID: 0}
    - target: {fileID: 8515300420366330143, guid: e17309cedb677214ca4aee2e90320c90, type: 3}
      propertyPath: m_LocalEulerAnglesHint.x
      value: 0
      objectReference: {fileID: 0}
    - target: {fileID: 8515300420366330143, guid: e17309cedb677214ca4aee2e90320c90, type: 3}
      propertyPath: m_LocalEulerAnglesHint.y
      value: 0
      objectReference: {fileID: 0}
    - target: {fileID: 8515300420366330143, guid: e17309cedb677214ca4aee2e90320c90, type: 3}
      propertyPath: m_LocalEulerAnglesHint.z
      value: 0
      objectReference: {fileID: 0}
    m_RemovedComponents: []
  m_SourcePrefab: {fileID: 100100000, guid: e17309cedb677214ca4aee2e90320c90, type: 3}
